E:\Facultate\An3\VVSS\primulrepo\src\main\java\tasks\model\Task.java
E:\Facultate\An3\VVSS\primulrepo\src\main\java\tasks\services\DateService.java
E:\Facultate\An3\VVSS\primulrepo\src\main\java\tasks\services\TasksService.java
E:\Facultate\An3\VVSS\primulrepo\src\main\java\tasks\model\TaskList.java
E:\Facultate\An3\VVSS\primulrepo\src\main\java\tasks\controller\NewEditController.java
E:\Facultate\An3\VVSS\primulrepo\src\main\java\tasks\controller\TaskInfoController.java
E:\Facultate\An3\VVSS\primulrepo\src\main\java\tasks\view\Main.java
E:\Facultate\An3\VVSS\primulrepo\src\main\java\tasks\model\TasksOperations.java
E:\Facultate\An3\VVSS\primulrepo\src\main\java\tasks\model\ArrayTaskList.java
E:\Facultate\An3\VVSS\primulrepo\src\main\java\tasks\model\LinkedTaskList.java
E:\Facultate\An3\VVSS\primulrepo\src\main\java\tasks\controller\Notificator.java
E:\Facultate\An3\VVSS\primulrepo\src\main\java\tasks\controller\Controller.java
E:\Facultate\An3\VVSS\primulrepo\src\main\java\tasks\services\TaskIO.java
